# Blender v2.80 (sub 75) OBJ File: 'level1.blend'
# www.blender.org
mtllib level1.mtl
o Plane
v -0.999956 -1.000044 -0.000000
v 1.000044 -1.000043 0.000000
v -0.999956 0.999956 -0.000000
v 1.000043 0.999957 0.000000
v -0.999956 -0.000044 -0.000000
v 1.000044 -0.000043 0.000000
v -0.999956 -0.500044 -0.000000
v 1.000044 -0.500043 0.000000
v 1.000044 0.499957 0.000000
v -0.999956 0.499956 -0.000000
v 1.000044 -0.250043 0.000000
v -0.999956 -0.250044 -0.000000
v -0.999956 -0.750044 -0.000000
v 1.000044 -0.750043 0.000000
v -0.999956 0.249956 -0.000000
v 1.000044 0.249957 0.000000
v 1.000044 0.749957 0.000000
v -0.999956 0.749956 -0.000000
v 0.000044 -1.000044 -0.265856
v 0.000043 0.999956 -0.265856
v 0.000044 -0.000044 -0.265856
v 0.000044 -0.500044 -0.265856
v 0.000044 0.499956 -0.265856
v 0.000044 -0.250044 -0.265856
v 0.000044 -0.750044 -0.265856
v 0.000044 0.249956 -0.265856
v 0.000043 0.749956 -0.265856
v 0.500044 -1.000044 0.000000
v 0.500043 0.999956 0.000000
v 0.500044 -0.000044 0.000000
v 0.500044 -0.500044 0.000000
v 0.500043 0.499957 0.000000
v 0.500044 -0.250043 0.000000
v 0.500044 -0.750044 0.000000
v 0.500044 0.249957 0.000000
v 0.500043 0.749956 0.000000
v 0.250043 0.999956 0.000000
v 0.250044 -0.000044 0.000000
v 0.250044 -0.500044 0.000000
v 0.250044 0.499957 0.000000
v 0.250044 -0.250044 0.000000
v 0.250044 -0.750044 0.000000
v 0.250044 0.249956 0.000000
v 0.250043 0.749956 0.000000
v 0.250044 -1.000044 0.000000
v 0.750044 -1.000044 0.000000
v 0.750043 0.999957 0.000000
v 0.750044 -0.000043 0.000000
v 0.750044 -0.500043 0.000000
v 0.750044 0.499957 0.000000
v 0.750044 -0.250043 0.000000
v 0.750044 -0.750043 0.000000
v 0.750044 0.249957 0.000000
v 0.750043 0.749957 0.000000
v -0.499957 0.999956 -0.000000
v -0.499956 -0.000044 -0.000000
v -0.499956 -0.500044 -0.000000
v -0.499957 0.499956 -0.000000
v -0.499956 -0.250044 -0.000000
v -0.499956 -0.750044 -0.000000
v -0.499957 0.249956 -0.000000
v -0.499957 0.749956 -0.000000
v -0.499956 -1.000044 -0.000000
v -0.249956 -1.000044 -0.000000
v -0.249957 0.999956 -0.000000
v -0.249956 -0.000044 -0.000000
v -0.249956 -0.500044 -0.000000
v -0.249957 0.499956 -0.000000
v -0.249956 -0.250044 -0.000000
v -0.249956 -0.750044 -0.000000
v -0.249956 0.249956 -0.000000
v -0.249957 0.749956 -0.000000
v -0.749957 0.999956 -0.000000
v -0.749956 -0.000044 -0.000000
v -0.749956 -0.500044 -0.000000
v -0.749956 0.499956 -0.000000
v -0.749956 -0.250044 -0.000000
v -0.749956 -0.750044 -0.000000
v -0.749956 0.249956 -0.000000
v -0.749957 0.749956 -0.000000
v -0.749956 -1.000044 -0.000000
v -0.999956 -0.875044 -0.000000
v 1.000044 -0.875043 0.000000
v 0.000044 -0.875044 -0.265856
v 0.500044 -0.875044 0.000000
v 0.250044 -0.875044 0.000000
v 0.750044 -0.875043 0.000000
v -0.499956 -0.875044 -0.000000
v -0.249956 -0.875044 -0.000000
v -0.749956 -0.875044 -0.000000
v 1.000044 -0.625043 0.000000
v -0.999956 -0.625044 -0.000000
v 0.000044 -0.625044 -0.265856
v 0.500044 -0.625044 0.000000
v 0.250044 -0.625044 0.000000
v 0.750044 -0.625043 0.000000
v -0.499956 -0.625044 -0.000000
v -0.249956 -0.625044 -0.000000
v -0.749956 -0.625044 -0.000000
v -0.999956 -0.375044 -0.000000
v 1.000044 -0.375043 0.000000
v 0.000044 -0.375044 -0.265856
v 0.500044 -0.375043 0.000000
v 0.250044 -0.375044 0.000000
v 0.750044 -0.375043 0.000000
v -0.499956 -0.375044 -0.000000
v -0.249956 -0.375044 -0.000000
v -0.749956 -0.375044 -0.000000
v 1.000044 -0.124303 0.000000
v -0.999956 -0.124303 -0.000000
v 0.000044 -0.124303 -0.265856
v 0.500044 -0.124303 0.000000
v 0.250044 -0.124303 0.000000
v 0.750044 -0.124303 0.000000
v -0.499956 -0.124303 -0.000000
v -0.249956 -0.124303 -0.000000
v -0.749956 -0.124303 -0.000000
v -0.999956 0.124956 -0.000000
v 1.000044 0.124957 0.000000
v 0.000044 0.124956 -0.265856
v 0.500044 0.124957 0.000000
v 0.250044 0.124956 0.000000
v 0.750044 0.124957 0.000000
v -0.499956 0.124956 -0.000000
v -0.249956 0.124956 -0.000000
v -0.749956 0.124956 -0.000000
v 1.000044 0.374957 0.000000
v -0.999956 0.374956 -0.000000
v 0.000044 0.374956 -0.265856
v 0.500044 0.374957 0.000000
v 0.250044 0.374957 0.000000
v 0.750044 0.374957 0.000000
v -0.499957 0.374956 -0.000000
v -0.249957 0.374956 -0.000000
v -0.749956 0.374956 -0.000000
v -0.999956 0.624956 -0.000000
v 1.000044 0.624957 0.000000
v 0.000043 0.624956 -0.265856
v 0.500043 0.624956 0.000000
v 0.250043 0.624956 0.000000
v 0.750044 0.624957 0.000000
v -0.499957 0.624956 -0.000000
v -0.249957 0.624956 -0.000000
v -0.749956 0.624956 -0.000000
v 1.000043 0.874957 0.000000
v -0.999956 0.874956 -0.000000
v 0.000043 0.874956 -0.265856
v 0.500043 0.874956 0.000000
v 0.250043 0.874956 0.000000
v 0.750043 0.874957 0.000000
v -0.499957 0.874956 -0.000000
v -0.249957 0.874956 -0.000000
v -0.749957 0.874956 -0.000000
v 0.875044 -1.000043 0.000000
v 0.875043 0.999957 0.000000
v 0.875044 -0.000043 0.000000
v 0.875044 -0.500043 0.000000
v 0.875044 0.499957 0.000000
v 0.875044 -0.250043 0.000000
v 0.875044 -0.750043 0.000000
v 0.875044 0.249957 0.000000
v 0.875043 0.749957 0.000000
v 0.875044 -0.875043 0.000000
v 0.875044 -0.625043 0.000000
v 0.875044 -0.375043 0.000000
v 0.875044 -0.124303 0.000000
v 0.875044 0.124957 0.000000
v 0.875044 0.374957 0.000000
v 0.875044 0.624957 0.000000
v 0.875043 0.874957 0.000000
v 0.625043 0.999956 0.000000
v 0.625044 -0.000043 0.000000
v 0.625044 -0.500044 0.000000
v 0.625044 0.499957 0.000000
v 0.625044 -0.250043 0.000000
v 0.625044 -0.750044 0.000000
v 0.625044 0.249957 0.000000
v 0.625043 0.749956 0.000000
v 0.625044 -1.000044 0.000000
v 0.625044 -0.875044 0.000000
v 0.625044 -0.625044 0.000000
v 0.625044 -0.375043 0.000000
v 0.625044 -0.124303 0.000000
v 0.625044 0.124957 0.000000
v 0.625044 0.374957 0.000000
v 0.625044 0.624956 0.000000
v 0.625043 0.874956 0.000000
v 0.375044 -1.000044 0.000000
v 0.375043 0.999956 0.000000
v 0.375044 -0.000044 0.000000
v 0.375044 -0.500044 0.000000
v 0.375043 0.499957 0.000000
v 0.375044 -0.250043 0.000000
v 0.375044 -0.750044 0.000000
v 0.375044 0.249957 0.000000
v 0.375043 0.749956 0.000000
v 0.375044 -0.875044 0.000000
v 0.375044 -0.625044 0.000000
v 0.375044 -0.375043 0.000000
v 0.375044 -0.124303 0.000000
v 0.375044 0.124956 0.000000
v 0.375043 0.374957 0.000000
v 0.375043 0.624956 0.000000
v 0.375043 0.874956 0.000000
v 0.125043 0.999956 -0.265856
v 0.125044 -0.000044 -0.265856
v 0.125044 -0.500044 -0.265856
v 0.125043 0.499956 -0.265856
v 0.125044 -0.250044 -0.265856
v 0.125044 -0.750044 -0.265856
v 0.125044 0.249956 -0.265856
v 0.125043 0.749956 -0.265856
v 0.125044 -1.000044 -0.265856
v 0.125044 -0.875044 -0.265856
v 0.125044 -0.625044 -0.265856
v 0.125044 -0.375044 -0.265856
v 0.125044 -0.124303 -0.265856
v 0.125044 0.124956 -0.265856
v 0.125044 0.374956 -0.265856
v 0.125043 0.624956 -0.265856
v 0.125043 0.874956 -0.265856
v -0.124956 -1.000044 -0.265856
v -0.124957 0.999956 -0.265856
v -0.124956 -0.000044 -0.265856
v -0.124956 -0.500044 -0.265856
v -0.124957 0.499956 -0.265856
v -0.124956 -0.250044 -0.265856
v -0.124956 -0.750044 -0.265856
v -0.124956 0.249956 -0.265856
v -0.124957 0.749956 -0.265856
v -0.124956 -0.875044 -0.265856
v -0.124956 -0.625044 -0.265856
v -0.124956 -0.375044 -0.265856
v -0.124956 -0.124303 -0.265856
v -0.124956 0.124956 -0.265856
v -0.124956 0.374956 -0.265856
v -0.124957 0.624956 -0.265856
v -0.124957 0.874956 -0.265856
v -0.374957 0.999956 -0.000000
v -0.374956 -0.000044 -0.000000
v -0.374956 -0.500044 -0.000000
v -0.374957 0.499956 -0.000000
v -0.374956 -0.250044 -0.000000
v -0.374956 -0.750044 -0.000000
v -0.374957 0.249956 -0.000000
v -0.374957 0.749956 -0.000000
v -0.374956 -1.000044 -0.000000
v -0.374956 -0.875044 -0.000000
v -0.374956 -0.625044 -0.000000
v -0.374956 -0.375044 -0.000000
v -0.374956 -0.124303 -0.000000
v -0.374956 0.124956 -0.000000
v -0.374957 0.374956 -0.000000
v -0.374957 0.624956 -0.000000
v -0.374957 0.874956 -0.000000
v -0.624956 -1.000044 -0.000000
v -0.624957 0.999956 -0.000000
v -0.624956 -0.000044 -0.000000
v -0.624956 -0.500044 -0.000000
v -0.624956 0.499956 -0.000000
v -0.624956 -0.250044 -0.000000
v -0.624956 -0.750044 -0.000000
v -0.624956 0.249956 -0.000000
v -0.624957 0.749956 -0.000000
v -0.624956 -0.875044 -0.000000
v -0.624956 -0.625044 -0.000000
v -0.624956 -0.375044 -0.000000
v -0.624956 -0.124303 -0.000000
v -0.624956 0.124956 -0.000000
v -0.624956 0.374956 -0.000000
v -0.624956 0.624956 -0.000000
v -0.624957 0.874956 -0.000000
v -0.874957 0.999956 -0.000000
v -0.874956 -0.000044 -0.000000
v -0.874956 -0.500044 -0.000000
v -0.874956 0.499956 -0.000000
v -0.874956 -0.250044 -0.000000
v -0.874956 -0.750044 -0.000000
v -0.874956 0.249956 -0.000000
v -0.874957 0.749956 -0.000000
v -0.874956 -1.000044 -0.000000
v -0.874956 -0.875044 -0.000000
v -0.874956 -0.625044 -0.000000
v -0.874956 -0.375044 -0.000000
v -0.874956 -0.124303 -0.000000
v -0.874956 0.124956 -0.000000
v -0.874956 0.374956 -0.000000
v -0.874956 0.624956 -0.000000
v -0.874957 0.874956 -0.000000
vt 0.937500 0.937500
vt 1.000000 0.937500
vt 1.000000 1.000000
vt 0.937500 1.000000
vt 0.937500 0.437870
vt 1.000000 0.437870
vt 1.000000 0.500000
vt 0.937500 0.500000
vt 0.937500 0.187500
vt 1.000000 0.187500
vt 1.000000 0.250000
vt 0.937500 0.250000
vt 0.937500 0.687500
vt 1.000000 0.687500
vt 1.000000 0.750000
vt 0.937500 0.750000
vt 0.937500 0.312500
vt 1.000000 0.312500
vt 1.000000 0.375000
vt 0.937500 0.375000
vt 0.937500 0.062500
vt 1.000000 0.062500
vt 1.000000 0.125000
vt 0.937500 0.125000
vt 0.937500 0.562500
vt 1.000000 0.562500
vt 1.000000 0.625000
vt 0.937500 0.625000
vt 0.937500 0.812500
vt 1.000000 0.812500
vt 1.000000 0.875000
vt 0.937500 0.875000
vt 0.437500 0.812500
vt 0.500000 0.812500
vt 0.500000 0.875000
vt 0.437500 0.875000
vt 0.437500 0.562500
vt 0.500000 0.562500
vt 0.500000 0.625000
vt 0.437500 0.625000
vt 0.437500 0.062500
vt 0.500000 0.062500
vt 0.500000 0.125000
vt 0.437500 0.125000
vt 0.437500 0.312500
vt 0.500000 0.312500
vt 0.500000 0.375000
vt 0.437500 0.375000
vt 0.437500 0.687500
vt 0.500000 0.687500
vt 0.500000 0.750000
vt 0.437500 0.750000
vt 0.437500 0.187500
vt 0.500000 0.187500
vt 0.500000 0.250000
vt 0.437500 0.250000
vt 0.437500 0.437870
vt 0.500000 0.437870
vt 0.500000 0.500000
vt 0.437500 0.500000
vt 0.437500 0.937500
vt 0.500000 0.937500
vt 0.500000 1.000000
vt 0.437500 1.000000
vt 0.687500 0.812500
vt 0.750000 0.812500
vt 0.750000 0.875000
vt 0.687500 0.875000
vt 0.687500 0.562500
vt 0.750000 0.562500
vt 0.750000 0.625000
vt 0.687500 0.625000
vt 0.687500 0.062500
vt 0.750000 0.062500
vt 0.750000 0.125000
vt 0.687500 0.125000
vt 0.687500 0.312500
vt 0.750000 0.312500
vt 0.750000 0.375000
vt 0.687500 0.375000
vt 0.687500 0.687500
vt 0.750000 0.687500
vt 0.750000 0.750000
vt 0.687500 0.750000
vt 0.687500 0.187500
vt 0.750000 0.187500
vt 0.750000 0.250000
vt 0.687500 0.250000
vt 0.687500 0.437870
vt 0.750000 0.437870
vt 0.750000 0.500000
vt 0.687500 0.500000
vt 0.687500 0.937500
vt 0.750000 0.937500
vt 0.750000 1.000000
vt 0.687500 1.000000
vt 0.562500 0.937500
vt 0.625000 0.937500
vt 0.625000 1.000000
vt 0.562500 1.000000
vt 0.562500 0.437870
vt 0.625000 0.437870
vt 0.625000 0.500000
vt 0.562500 0.500000
vt 0.562500 0.187500
vt 0.625000 0.187500
vt 0.625000 0.250000
vt 0.562500 0.250000
vt 0.562500 0.687500
vt 0.625000 0.687500
vt 0.625000 0.750000
vt 0.562500 0.750000
vt 0.562500 0.312500
vt 0.625000 0.312500
vt 0.625000 0.375000
vt 0.562500 0.375000
vt 0.562500 0.062500
vt 0.625000 0.062500
vt 0.625000 0.125000
vt 0.562500 0.125000
vt 0.562500 0.562500
vt 0.625000 0.562500
vt 0.625000 0.625000
vt 0.562500 0.625000
vt 0.562500 0.812500
vt 0.625000 0.812500
vt 0.625000 0.875000
vt 0.562500 0.875000
vt 0.812500 0.812500
vt 0.875000 0.812500
vt 0.875000 0.875000
vt 0.812500 0.875000
vt 0.812500 0.562500
vt 0.875000 0.562500
vt 0.875000 0.625000
vt 0.812500 0.625000
vt 0.812500 0.062500
vt 0.875000 0.062500
vt 0.875000 0.125000
vt 0.812500 0.125000
vt 0.812500 0.312500
vt 0.875000 0.312500
vt 0.875000 0.375000
vt 0.812500 0.375000
vt 0.812500 0.687500
vt 0.875000 0.687500
vt 0.875000 0.750000
vt 0.812500 0.750000
vt 0.812500 0.187500
vt 0.875000 0.187500
vt 0.875000 0.250000
vt 0.812500 0.250000
vt 0.812500 0.437870
vt 0.875000 0.437870
vt 0.875000 0.500000
vt 0.812500 0.500000
vt 0.812500 0.937500
vt 0.875000 0.937500
vt 0.875000 1.000000
vt 0.812500 1.000000
vt 0.187500 0.937500
vt 0.250000 0.937500
vt 0.250000 1.000000
vt 0.187500 1.000000
vt 0.187500 0.437870
vt 0.250000 0.437870
vt 0.250000 0.500000
vt 0.187500 0.500000
vt 0.187500 0.187500
vt 0.250000 0.187500
vt 0.250000 0.250000
vt 0.187500 0.250000
vt 0.187500 0.687500
vt 0.250000 0.687500
vt 0.250000 0.750000
vt 0.187500 0.750000
vt 0.187500 0.312500
vt 0.250000 0.312500
vt 0.250000 0.375000
vt 0.187500 0.375000
vt 0.187500 0.062500
vt 0.250000 0.062500
vt 0.250000 0.125000
vt 0.187500 0.125000
vt 0.187500 0.562500
vt 0.250000 0.562500
vt 0.250000 0.625000
vt 0.187500 0.625000
vt 0.187500 0.812500
vt 0.250000 0.812500
vt 0.250000 0.875000
vt 0.187500 0.875000
vt 0.312500 0.937500
vt 0.375000 0.937500
vt 0.375000 1.000000
vt 0.312500 1.000000
vt 0.312500 0.437870
vt 0.375000 0.437870
vt 0.375000 0.500000
vt 0.312500 0.500000
vt 0.312500 0.187500
vt 0.375000 0.187500
vt 0.375000 0.250000
vt 0.312500 0.250000
vt 0.312500 0.687500
vt 0.375000 0.687500
vt 0.375000 0.750000
vt 0.312500 0.750000
vt 0.312500 0.312500
vt 0.375000 0.312500
vt 0.375000 0.375000
vt 0.312500 0.375000
vt 0.312500 0.062500
vt 0.375000 0.062500
vt 0.375000 0.125000
vt 0.312500 0.125000
vt 0.312500 0.562500
vt 0.375000 0.562500
vt 0.375000 0.625000
vt 0.312500 0.625000
vt 0.312500 0.812500
vt 0.375000 0.812500
vt 0.375000 0.875000
vt 0.312500 0.875000
vt 0.062500 0.812500
vt 0.125000 0.812500
vt 0.125000 0.875000
vt 0.062500 0.875000
vt 0.062500 0.562500
vt 0.125000 0.562500
vt 0.125000 0.625000
vt 0.062500 0.625000
vt 0.062500 0.062500
vt 0.125000 0.062500
vt 0.125000 0.125000
vt 0.062500 0.125000
vt 0.062500 0.312500
vt 0.125000 0.312500
vt 0.125000 0.375000
vt 0.062500 0.375000
vt 0.062500 0.687500
vt 0.125000 0.687500
vt 0.125000 0.750000
vt 0.062500 0.750000
vt 0.062500 0.187500
vt 0.125000 0.187500
vt 0.125000 0.250000
vt 0.062500 0.250000
vt 0.062500 0.437870
vt 0.125000 0.437870
vt 0.125000 0.500000
vt 0.062500 0.500000
vt 0.062500 0.937500
vt 0.125000 0.937500
vt 0.125000 1.000000
vt 0.062500 1.000000
vt 0.062500 0.000000
vt 0.125000 0.000000
vt 0.312500 0.000000
vt 0.375000 0.000000
vt 0.187500 0.000000
vt 0.250000 0.000000
vt 0.812500 0.000000
vt 0.875000 0.000000
vt 0.562500 0.000000
vt 0.625000 0.000000
vt 0.687500 0.000000
vt 0.750000 0.000000
vt 0.437500 0.000000
vt 0.500000 0.000000
vt 0.937500 0.000000
vt 1.000000 0.000000
vt 0.000000 0.875000
vt 0.000000 0.937500
vt 0.000000 0.750000
vt 0.000000 0.812500
vt 0.000000 0.625000
vt 0.000000 0.687500
vt 0.000000 0.500000
vt 0.000000 0.562500
vt 0.000000 0.375000
vt 0.000000 0.437870
vt 0.000000 0.250000
vt 0.000000 0.312500
vt 0.000000 0.125000
vt 0.000000 0.187500
vt 0.000000 0.000000
vt 0.000000 0.062500
vt 0.000000 1.000000
vn -0.0000 0.0000 1.0000
vn -0.9050 -0.0000 0.4255
vn 0.9050 0.0000 0.4255
usemtl None
s off
f 170/1/1 145/2/1 4/3/1 155/4/1
f 166/5/1 109/6/1 6/7/1 156/8/1
f 164/9/1 91/10/1 8/11/1 157/12/1
f 168/13/1 127/14/1 9/15/1 158/16/1
f 165/17/1 101/18/1 11/19/1 159/20/1
f 163/21/1 83/22/1 14/23/1 160/24/1
f 167/25/1 119/26/1 16/27/1 161/28/1
f 169/29/1 137/30/1 17/31/1 162/32/1
f 237/33/1 138/34/1 27/35/1 230/36/1
f 235/37/1 120/38/1 26/39/1 229/40/1
f 231/41/1 84/42/1 25/43/1 228/44/1
f 233/45/1 102/46/1 24/47/1 227/48/1
f 236/49/1 129/50/1 23/51/1 226/52/1
f 232/53/1 93/54/1 22/55/1 225/56/1
f 234/57/1 111/58/1 21/59/1 224/60/1
f 238/61/1 147/62/1 20/63/1 223/64/1
f 203/65/1 139/66/1 36/67/1 196/68/1
f 201/69/1 121/70/1 35/71/1 195/72/1
f 197/73/1 85/74/1 34/75/1 194/76/1
f 199/77/1 103/78/1 33/79/1 193/80/1
f 202/81/1 130/82/1 32/83/1 192/84/1
f 198/85/1 94/86/1 31/87/1 191/88/1
f 200/89/1 112/90/1 30/91/1 190/92/1
f 204/93/1 148/94/1 29/95/1 189/96/1
f 221/97/2 149/98/2 37/99/2 205/100/2
f 217/101/2 113/102/2 38/103/2 206/104/2
f 215/105/2 95/106/2 39/107/2 207/108/2
f 219/109/2 131/110/2 40/111/2 208/112/2
f 216/113/2 104/114/2 41/115/2 209/116/2
f 214/117/2 86/118/2 42/119/2 210/120/2
f 218/121/2 122/122/2 43/123/2 211/124/2
f 220/125/2 140/126/2 44/127/2 212/128/2
f 186/129/1 141/130/1 54/131/1 178/132/1
f 184/133/1 123/134/1 53/135/1 177/136/1
f 180/137/1 87/138/1 52/139/1 176/140/1
f 182/141/1 105/142/1 51/143/1 175/144/1
f 185/145/1 132/146/1 50/147/1 174/148/1
f 181/149/1 96/150/1 49/151/1 173/152/1
f 183/153/1 114/154/1 48/155/1 172/156/1
f 187/157/1 150/158/1 47/159/1 171/160/1
f 272/161/1 151/162/1 55/163/1 257/164/1
f 268/165/1 115/166/1 56/167/1 258/168/1
f 266/169/1 97/170/1 57/171/1 259/172/1
f 270/173/1 133/174/1 58/175/1 260/176/1
f 267/177/1 106/178/1 59/179/1 261/180/1
f 265/181/1 88/182/1 60/183/1 262/184/1
f 269/185/1 124/186/1 61/187/1 263/188/1
f 271/189/1 142/190/1 62/191/1 264/192/1
f 255/193/1 152/194/1 65/195/1 239/196/1
f 251/197/1 116/198/1 66/199/1 240/200/1
f 249/201/1 98/202/1 67/203/1 241/204/1
f 253/205/1 134/206/1 68/207/1 242/208/1
f 250/209/1 107/210/1 69/211/1 243/212/1
f 248/213/1 89/214/1 70/215/1 244/216/1
f 252/217/1 125/218/1 71/219/1 245/220/1
f 254/221/1 143/222/1 72/223/1 246/224/1
f 288/225/1 144/226/1 80/227/1 280/228/1
f 286/229/1 126/230/1 79/231/1 279/232/1
f 282/233/1 90/234/1 78/235/1 278/236/1
f 284/237/1 108/238/1 77/239/1 277/240/1
f 287/241/1 135/242/1 76/243/1 276/244/1
f 283/245/1 99/246/1 75/247/1 275/248/1
f 285/249/1 117/250/1 74/251/1 274/252/1
f 289/253/1 153/254/1 73/255/1 273/256/1
f 281/257/1 81/258/1 90/234/1 282/233/1
f 247/259/1 64/260/1 89/214/1 248/213/1
f 256/261/1 63/262/1 88/182/1 265/181/1
f 179/263/1 46/264/1 87/138/1 180/137/1
f 213/265/2 45/266/2 86/118/2 214/117/2
f 188/267/1 28/268/1 85/74/1 197/73/1
f 222/269/1 19/270/1 84/42/1 231/41/1
f 154/271/1 2/272/1 83/22/1 163/21/1
f 278/236/1 78/235/1 99/246/1 283/245/1
f 244/216/1 70/215/1 98/202/1 249/201/1
f 262/184/1 60/183/1 97/170/1 266/169/1
f 176/140/1 52/139/1 96/150/1 181/149/1
f 210/120/2 42/119/2 95/106/2 215/105/2
f 194/76/1 34/75/1 94/86/1 198/85/1
f 228/44/1 25/43/1 93/54/1 232/53/1
f 160/24/1 14/23/1 91/10/1 164/9/1
f 275/248/1 75/247/1 108/238/1 284/237/1
f 241/204/1 67/203/1 107/210/1 250/209/1
f 259/172/1 57/171/1 106/178/1 267/177/1
f 173/152/1 49/151/1 105/142/1 182/141/1
f 207/108/2 39/107/2 104/114/2 216/113/2
f 191/88/1 31/87/1 103/78/1 199/77/1
f 225/56/1 22/55/1 102/46/1 233/45/1
f 157/12/1 8/11/1 101/18/1 165/17/1
f 277/240/1 77/239/1 117/250/1 285/249/1
f 243/212/1 69/211/1 116/198/1 251/197/1
f 261/180/1 59/179/1 115/166/1 268/165/1
f 175/144/1 51/143/1 114/154/1 183/153/1
f 209/116/2 41/115/2 113/102/2 217/101/2
f 193/80/1 33/79/1 112/90/1 200/89/1
f 227/48/1 24/47/1 111/58/1 234/57/1
f 159/20/1 11/19/1 109/6/1 166/5/1
f 274/252/1 74/251/1 126/230/1 286/229/1
f 240/200/1 66/199/1 125/218/1 252/217/1
f 258/168/1 56/167/1 124/186/1 269/185/1
f 172/156/1 48/155/1 123/134/1 184/133/1
f 206/104/2 38/103/2 122/122/2 218/121/2
f 190/92/1 30/91/1 121/70/1 201/69/1
f 224/60/1 21/59/1 120/38/1 235/37/1
f 156/8/1 6/7/1 119/26/1 167/25/1
f 279/232/1 79/231/1 135/242/1 287/241/1
f 245/220/1 71/219/1 134/206/1 253/205/1
f 263/188/1 61/187/1 133/174/1 270/173/1
f 177/136/1 53/135/1 132/146/1 185/145/1
f 211/124/2 43/123/2 131/110/2 219/109/2
f 195/72/1 35/71/1 130/82/1 202/81/1
f 229/40/1 26/39/1 129/50/1 236/49/1
f 161/28/1 16/27/1 127/14/1 168/13/1
f 276/244/1 76/243/1 144/226/1 288/225/1
f 242/208/1 68/207/1 143/222/1 254/221/1
f 260/176/1 58/175/1 142/190/1 271/189/1
f 174/148/1 50/147/1 141/130/1 186/129/1
f 208/112/2 40/111/2 140/126/2 220/125/2
f 192/84/1 32/83/1 139/66/1 203/65/1
f 226/52/1 23/51/1 138/34/1 237/33/1
f 158/16/1 9/15/1 137/30/1 169/29/1
f 280/228/1 80/227/1 153/254/1 289/253/1
f 246/224/1 72/223/1 152/194/1 255/193/1
f 264/192/1 62/191/1 151/162/1 272/161/1
f 178/132/1 54/131/1 150/158/1 187/157/1
f 212/128/2 44/127/2 149/98/2 221/97/2
f 196/68/1 36/67/1 148/94/1 204/93/1
f 230/36/1 27/35/1 147/62/1 238/61/1
f 162/32/1 17/31/1 145/2/1 170/1/1
f 54/131/1 162/32/1 170/1/1 150/158/1
f 50/147/1 158/16/1 169/29/1 141/130/1
f 53/135/1 161/28/1 168/13/1 132/146/1
f 48/155/1 156/8/1 167/25/1 123/134/1
f 51/143/1 159/20/1 166/5/1 114/154/1
f 49/151/1 157/12/1 165/17/1 105/142/1
f 52/139/1 160/24/1 164/9/1 96/150/1
f 46/264/1 154/271/1 163/21/1 87/138/1
f 141/130/1 169/29/1 162/32/1 54/131/1
f 123/134/1 167/25/1 161/28/1 53/135/1
f 87/138/1 163/21/1 160/24/1 52/139/1
f 105/142/1 165/17/1 159/20/1 51/143/1
f 132/146/1 168/13/1 158/16/1 50/147/1
f 96/150/1 164/9/1 157/12/1 49/151/1
f 114/154/1 166/5/1 156/8/1 48/155/1
f 150/158/1 170/1/1 155/4/1 47/159/1
f 36/67/1 178/132/1 187/157/1 148/94/1
f 32/83/1 174/148/1 186/129/1 139/66/1
f 35/71/1 177/136/1 185/145/1 130/82/1
f 30/91/1 172/156/1 184/133/1 121/70/1
f 33/79/1 175/144/1 183/153/1 112/90/1
f 31/87/1 173/152/1 182/141/1 103/78/1
f 34/75/1 176/140/1 181/149/1 94/86/1
f 28/268/1 179/263/1 180/137/1 85/74/1
f 148/94/1 187/157/1 171/160/1 29/95/1
f 112/90/1 183/153/1 172/156/1 30/91/1
f 94/86/1 181/149/1 173/152/1 31/87/1
f 130/82/1 185/145/1 174/148/1 32/83/1
f 103/78/1 182/141/1 175/144/1 33/79/1
f 85/74/1 180/137/1 176/140/1 34/75/1
f 121/70/1 184/133/1 177/136/1 35/71/1
f 139/66/1 186/129/1 178/132/1 36/67/1
f 44/127/1 196/68/1 204/93/1 149/98/1
f 40/111/1 192/84/1 203/65/1 140/126/1
f 43/123/1 195/72/1 202/81/1 131/110/1
f 38/103/1 190/92/1 201/69/1 122/122/1
f 41/115/1 193/80/1 200/89/1 113/102/1
f 39/107/1 191/88/1 199/77/1 104/114/1
f 42/119/1 194/76/1 198/85/1 95/106/1
f 45/266/1 188/267/1 197/73/1 86/118/1
f 149/98/1 204/93/1 189/96/1 37/99/1
f 113/102/1 200/89/1 190/92/1 38/103/1
f 95/106/1 198/85/1 191/88/1 39/107/1
f 131/110/1 202/81/1 192/84/1 40/111/1
f 104/114/1 199/77/1 193/80/1 41/115/1
f 86/118/1 197/73/1 194/76/1 42/119/1
f 122/122/1 201/69/1 195/72/1 43/123/1
f 140/126/1 203/65/1 196/68/1 44/127/1
f 27/35/1 212/128/1 221/97/1 147/62/1
f 23/51/1 208/112/1 220/125/1 138/34/1
f 26/39/1 211/124/1 219/109/1 129/50/1
f 21/59/1 206/104/1 218/121/1 120/38/1
f 24/47/1 209/116/1 217/101/1 111/58/1
f 22/55/1 207/108/1 216/113/1 102/46/1
f 25/43/1 210/120/1 215/105/1 93/54/1
f 19/270/1 213/265/1 214/117/1 84/42/1
f 138/34/1 220/125/1 212/128/1 27/35/1
f 120/38/1 218/121/1 211/124/1 26/39/1
f 84/42/1 214/117/1 210/120/1 25/43/1
f 102/46/1 216/113/1 209/116/1 24/47/1
f 129/50/1 219/109/1 208/112/1 23/51/1
f 93/54/1 215/105/1 207/108/1 22/55/1
f 111/58/1 217/101/1 206/104/1 21/59/1
f 147/62/1 221/97/1 205/100/1 20/63/1
f 72/223/3 230/36/3 238/61/3 152/194/3
f 68/207/3 226/52/3 237/33/3 143/222/3
f 71/219/3 229/40/3 236/49/3 134/206/3
f 66/199/3 224/60/3 235/37/3 125/218/3
f 69/211/3 227/48/3 234/57/3 116/198/3
f 67/203/3 225/56/3 233/45/3 107/210/3
f 70/215/3 228/44/3 232/53/3 98/202/3
f 64/260/3 222/269/3 231/41/3 89/214/3
f 152/194/3 238/61/3 223/64/3 65/195/3
f 116/198/3 234/57/3 224/60/3 66/199/3
f 98/202/3 232/53/3 225/56/3 67/203/3
f 134/206/3 236/49/3 226/52/3 68/207/3
f 107/210/3 233/45/3 227/48/3 69/211/3
f 89/214/3 231/41/3 228/44/3 70/215/3
f 125/218/3 235/37/3 229/40/3 71/219/3
f 143/222/3 237/33/3 230/36/3 72/223/3
f 62/191/1 246/224/1 255/193/1 151/162/1
f 58/175/1 242/208/1 254/221/1 142/190/1
f 61/187/1 245/220/1 253/205/1 133/174/1
f 56/167/1 240/200/1 252/217/1 124/186/1
f 59/179/1 243/212/1 251/197/1 115/166/1
f 57/171/1 241/204/1 250/209/1 106/178/1
f 60/183/1 244/216/1 249/201/1 97/170/1
f 63/262/1 247/259/1 248/213/1 88/182/1
f 142/190/1 254/221/1 246/224/1 62/191/1
f 124/186/1 252/217/1 245/220/1 61/187/1
f 88/182/1 248/213/1 244/216/1 60/183/1
f 106/178/1 250/209/1 243/212/1 59/179/1
f 133/174/1 253/205/1 242/208/1 58/175/1
f 97/170/1 249/201/1 241/204/1 57/171/1
f 115/166/1 251/197/1 240/200/1 56/167/1
f 151/162/1 255/193/1 239/196/1 55/163/1
f 80/227/1 264/192/1 272/161/1 153/254/1
f 76/243/1 260/176/1 271/189/1 144/226/1
f 79/231/1 263/188/1 270/173/1 135/242/1
f 74/251/1 258/168/1 269/185/1 126/230/1
f 77/239/1 261/180/1 268/165/1 117/250/1
f 75/247/1 259/172/1 267/177/1 108/238/1
f 78/235/1 262/184/1 266/169/1 99/246/1
f 81/258/1 256/261/1 265/181/1 90/234/1
f 144/226/1 271/189/1 264/192/1 80/227/1
f 126/230/1 269/185/1 263/188/1 79/231/1
f 90/234/1 265/181/1 262/184/1 78/235/1
f 108/238/1 267/177/1 261/180/1 77/239/1
f 135/242/1 270/173/1 260/176/1 76/243/1
f 99/246/1 266/169/1 259/172/1 75/247/1
f 117/250/1 268/165/1 258/168/1 74/251/1
f 153/254/1 272/161/1 257/164/1 73/255/1
f 18/273/1 280/228/1 289/253/1 146/274/1
f 10/275/1 276/244/1 288/225/1 136/276/1
f 15/277/1 279/232/1 287/241/1 128/278/1
f 5/279/1 274/252/1 286/229/1 118/280/1
f 12/281/1 277/240/1 285/249/1 110/282/1
f 7/283/1 275/248/1 284/237/1 100/284/1
f 13/285/1 278/236/1 283/245/1 92/286/1
f 1/287/1 281/257/1 282/233/1 82/288/1
f 146/274/1 289/253/1 273/256/1 3/289/1
f 110/282/1 285/249/1 274/252/1 5/279/1
f 92/286/1 283/245/1 275/248/1 7/283/1
f 128/278/1 287/241/1 276/244/1 10/275/1
f 100/284/1 284/237/1 277/240/1 12/281/1
f 82/288/1 282/233/1 278/236/1 13/285/1
f 118/280/1 286/229/1 279/232/1 15/277/1
f 136/276/1 288/225/1 280/228/1 18/273/1
